 {

    "name": "AcouCNN_RESeNet",
    "device": "cuda",
    "gpu": 0,
    "model": "FULL",

    "LOCATIONS": {

        "ROOT": "//home/tim/Documents/Masters/",
        "project": "2020 Code/Production/AudioCNN5/",
        "file_path": "//home/tim/Documents/Masters/Datasets/Master Whale Sounds/Master Whale Sounds/kFold/",
        "init_dataset": "Datasets/Master Whale Sounds/Master Whale Sounds/snapshots 3s editable/",
        "dataset": "dataset/kFold"
    },

    "LOGGING": {
        "preprocess_manifest": "dataset/manifest_audio.csv",
        "manifest": "manifest.csv",
        "kfold_manifest": "dataset/audio.csv",
        "log_file": "log.txt"

    },

    "PARAMETERS": {
        "model_type": "FULL",
        "model_name": "FULL",
        "input_dim": 48000,
        "size": "",
        "hidden_dim": ""
    },

    "HYPERPARAMETERS": {

        "n_classes": 7,
        "batch_size": 32,
        "learning_rate": 0.001,
        "epoch": 10,
        "train_fold": {
          "start" : 0,
          "end" : 7
        },

        "val_fold": {
          "start" : 7,
          "end" : 9
        },
        "test_fold" : 9,
        "max_epochs": 5

    }
}
